D {auscensus} Vignette | Analysing Australian Electoral Results
…
    value_i <- value_i  |> 
               auscensus::calculate_percentage(key_col = "Attribute",
                                                value_col = "Value",
                                                key_value = "Total",
                                                percentage_scale = 100)

   citizenship_ced <- bind_rows(citizenship_ced,value_i)

 }

citizenship_ced 

## # A tibble: 601 × 6
##    Unit       Year Attribute            Value  Total Percentage
##    <chr>     <dbl> <chr>                <dbl>  <dbl>      <dbl>
##  1 Adelaide   2006 Australian Citizens 231816 280302       82.7
##  2 Aston      2006 Australian Citizens 230020 258926       88.8
##  3 Ballarat   2006 Australian Citizens 236494 258442       91.5
##  4 Banks      2006 Australian Citizens 208362 236742       88.0
##  5 Barker     2006 Australian Citizens 266066 290820       91.5
##  6 Barton     2006 Australian Citizens 210574 262468       80.2
##  7 Bass       2006 Australian Citizens 171262 188540       90.8
##  8 Batman     2006 Australian Citizens 211122 256214       82.4
##  9 Bendigo    2006 Australian Citizens 243860 263770       92.5
## 10 Bennelong  2006 Australian Citizens 208946 258680       80.8
## # ℹ 591 more rows
