C {auspol} Vignette | Analysing Australian Electoral Results
…
house_primary_historic_plot()

C.1 What is this?

If you are unfamiliar with the Australian electoral system and preferential voting, please look at this [explainer(https://www.aec.gov.au/learn/preferential-voting.html) before proceeding.

C.2 Getting the data

get_house_primary_vote() is the basic function to retrieve primary vote data published by the AEC. Without any arguments, it will deliver all the results for all elections, but it comes with parameters to facilitate filtering.
For instance, to get the results for Brisbane for 2022:

get_house_primary_vote(division="Brisbane",year=2022)

## # A tibble: 344 × 17
##     Year StateAb DivisionID DivisionNm PollingPlaceID PollingPlace CandidateID Surname  GivenNm     BallotPosition Elected
##    <dbl> <chr>        <int> <chr>               <int> <chr>              <int> <chr>    <chr>                <int> <lgl>  
##  1  2022 QLD            156 Brisbane            83397 Alderley           37204 KENNEDY  Tiana                    1 FALSE  
##  2  2022 QLD            156 Brisbane            83397 Alderley           35972 KNUDSON  Justin Marc              2 FALSE  
##  3  2022 QLD            156 Brisbane            83397 Alderley           37338 BATES    Stephen                  3 TRUE   
##  4  2022 QLD            156 Brisbane            83397 Alderley           37230 JARRETT  Madonna                  4 FALSE  
##  5  2022 QLD            156 Brisbane            83397 Alderley           37482 EVANS    Trevor                   5 FALSE  
##  6  2022 QLD            156 Brisbane            83397 Alderley           38213 HOLD     Trevor                   6 FALSE  
##  7  2022 QLD            156 Brisbane            83397 Alderley           37311 BULL     Anthony                  7 FALSE  
##  8  2022 QLD            156 Brisbane            83397 Alderley             999 Informal Informal               999 FALSE  
##  9  2022 QLD            156 Brisbane             6017 Ascot              37204 KENNEDY  Tiana                    1 FALSE  
## 10  2022 QLD            156 Brisbane             6017 Ascot              35972 KNUDSON  Justin Marc              2 FALSE  
## # ℹ 334 more rows
## # ℹ 6 more variables: HistoricElected <lgl>, PartyAb <chr>, PartyNm <chr>, OrdinaryVotes <int>, Swing <dbl>,
## #   SittingMemberFl <lgl>

Both parameters can include more than one value, e.g.

get_house_primary_vote(division="Brisbane",year=c(2019,2022))

## # A tibble: 712 × 17
##     Year StateAb DivisionID DivisionNm PollingPlaceID PollingPlace CandidateID Surname  GivenNm     BallotPosition Elected
##    <dbl> <chr>        <int> <chr>               <int> <chr>              <int> <chr>    <chr>                <int> <lgl>  
##  1  2022 QLD            156 Brisbane            83397 Alderley           37204 KENNEDY  Tiana                    1 FALSE  
##  2  2022 QLD            156 Brisbane            83397 Alderley           35972 KNUDSON  Justin Marc              2 FALSE  
##  3  2022 QLD            156 Brisbane            83397 Alderley           37338 BATES    Stephen                  3 TRUE   
##  4  2022 QLD            156 Brisbane            83397 Alderley           37230 JARRETT  Madonna                  4 FALSE  
##  5  2022 QLD            156 Brisbane            83397 Alderley           37482 EVANS    Trevor                   5 FALSE  
##  6  2022 QLD            156 Brisbane            83397 Alderley           38213 HOLD     Trevor                   6 FALSE  
##  7  2022 QLD            156 Brisbane            83397 Alderley           37311 BULL     Anthony                  7 FALSE  
##  8  2022 QLD            156 Brisbane            83397 Alderley             999 Informal Informal               999 FALSE  
##  9  2022 QLD            156 Brisbane             6017 Ascot              37204 KENNEDY  Tiana                    1 FALSE  
## 10  2022 QLD            156 Brisbane             6017 Ascot              35972 KNUDSON  Justin Marc              2 FALSE  
## # ℹ 702 more rows
## # ℹ 6 more variables: HistoricElected <lgl>, PartyAb <chr>, PartyNm <chr>, OrdinaryVotes <int>, Swing <dbl>,
## #   SittingMemberFl <lgl>

get_house_primary_vote(division=c("Brisbane","Perth"),year=c(2019,2022))

## # A tibble: 1,783 × 17
##     Year StateAb DivisionID DivisionNm PollingPlaceID PollingPlace CandidateID Surname  GivenNm     BallotPosition Elected
##    <dbl> <chr>        <int> <chr>               <int> <chr>              <int> <chr>    <chr>                <int> <lgl>  
##  1  2022 QLD            156 Brisbane            83397 Alderley           37204 KENNEDY  Tiana                    1 FALSE  
##  2  2022 QLD            156 Brisbane            83397 Alderley           35972 KNUDSON  Justin Marc              2 FALSE  
##  3  2022 QLD            156 Brisbane            83397 Alderley           37338 BATES    Stephen                  3 TRUE   
##  4  2022 QLD            156 Brisbane            83397 Alderley           37230 JARRETT  Madonna                  4 FALSE  
##  5  2022 QLD            156 Brisbane            83397 Alderley           37482 EVANS    Trevor                   5 FALSE  
##  6  2022 QLD            156 Brisbane            83397 Alderley           38213 HOLD     Trevor                   6 FALSE  
##  7  2022 QLD            156 Brisbane            83397 Alderley           37311 BULL     Anthony                  7 FALSE  
##  8  2022 QLD            156 Brisbane            83397 Alderley             999 Informal Informal               999 FALSE  
##  9  2022 QLD            156 Brisbane             6017 Ascot              37204 KENNEDY  Tiana                    1 FALSE  
## 10  2022 QLD            156 Brisbane             6017 Ascot              35972 KNUDSON  Justin Marc              2 FALSE  
## # ℹ 1,773 more rows
## # ℹ 6 more variables: HistoricElected <lgl>, PartyAb <chr>, PartyNm <chr>, OrdinaryVotes <int>, Swing <dbl>,
## #   SittingMemberFl <lgl>

By default, the results are presented by polling place, with the possibility to aggregate them.

get_house_primary_vote(division=c("Brisbane","Perth"),year=c(2019,2022),aggregation = TRUE)

## # A tibble: 37 × 14
##     Year StateAb DivisionID DivisionNm CandidateID Surname   GivenNm BallotPosition Elected HistoricElected PartyAb PartyNm
##    <dbl> <chr>        <int> <chr>            <int> <chr>     <chr>            <int> <lgl>   <lgl>           <chr>   <chr>  
##  1  2019 QLD            156 Brisbane           999 Informal  Inform…            999 FALSE   FALSE           Inform… Inform…
##  2  2019 QLD            156 Brisbane         32751 PERRY     Anne                 1 FALSE   FALSE           ON      Paulin…
##  3  2019 QLD            156 Brisbane         32946 NEWBURY   Paul                 6 FALSE   FALSE           ALP     Austra…
##  4  2019 QLD            156 Brisbane         32960 WHITTAKER Aaron                3 FALSE   FALSE           UAPP    United…
##  5  2019 QLD            156 Brisbane         33144 BARTLETT  Andrew               4 FALSE   FALSE           GRN     The Gr…
##  6  2019 QLD            156 Brisbane         33206 EVANS     Trevor               2 TRUE    TRUE            LNP     Libera…
##  7  2019 QLD            156 Brisbane         33224 EMANUEL   Kamala               7 FALSE   FALSE           SAL     Social…
##  8  2019 QLD            156 Brisbane         33326 JEANNERET Rod                  5 FALSE   FALSE           FACN    FRASER…
##  9  2019 WA             245 Perth              999 Informal  Inform…            999 FALSE   FALSE           Inform… Inform…
## 10  2019 WA             245 Perth            32155 PERKS     Caroli…              6 FALSE   FALSE           GRN     The Gr…
## # ℹ 27 more rows
## # ℹ 2 more variables: SittingMemberFl <lgl>, OrdinaryVotes <int>
…
It is also possible to restrict the results to selected polling places

Additionally, it is possible to select one or more states instead of a group of divisions, e.g.:

get_house_primary_vote(state=c("TAS"),year=c(2019,2022),aggregation = TRUE)

## # A tibble: 86 × 14
##     Year StateAb DivisionID DivisionNm CandidateID Surname  GivenNm  BallotPosition Elected HistoricElected PartyAb PartyNm
##    <dbl> <chr>        <int> <chr>            <int> <chr>    <chr>             <int> <lgl>   <lgl>           <chr>   <chr>  
##  1  2019 TAS            192 Bass               999 Informal Informal            999 FALSE   FALSE           Inform… Inform…
##  2  2019 TAS            192 Bass             32124 ARCHER   Bridget               4 TRUE    FALSE           LP      Liberal
##  3  2019 TAS            192 Bass             32327 HART     Ross                  2 FALSE   TRUE            ALP     Austra…
##  4  2019 TAS            192 Bass             32379 WOODBURY Susan                 3 FALSE   FALSE           AJP     Animal…
##  5  2019 TAS            192 Bass             32399 COOPER   Carl                  7 FALSE   FALSE           NP      The Na…
##  6  2019 TAS            192 Bass             32540 HALL     Tom                   1 FALSE   FALSE           GRN     The Gr…
##  7  2019 TAS            192 Bass             32545 ROARK    Allan J…              6 FALSE   FALSE           UAPP    United…
##  8  2019 TAS            192 Bass             33590 LAMBERT  Todd                  5 FALSE   FALSE           IND     Indepe…
##  9  2019 TAS            193 Braddon            999 Informal Informal            999 FALSE   FALSE           Inform… Inform…
## 10  2019 TAS            193 Braddon          32094 BRAKEY   Craig                 2 FALSE   FALSE           IND     Indepe…
## # ℹ 76 more rows
## # ℹ 2 more variables: SittingMemberFl <lgl>, OrdinaryVotes <int>
…
Using the previous filters, it is possible to get ad-hoc summaries, for instance - all the ALP votes in Queensland in 2022, or the historic Liberal vote in Franklin.

house_primary_vote_summary(state = "QLD", year=2022,parties="ALP")

## # A tibble: 30 × 11
##     Year StateAb DivisionNm  PartyAb PartyNm        OrdinaryVotes GivenNm Surname Percentage_with_Info…¹ Percentage Elected
##    <dbl> <chr>   <chr>       <chr>   <chr>                  <int> <chr>   <chr>                    <dbl>      <dbl> <lgl>  
##  1  2022 QLD     Blair       ALP     Australian La…         27323 Shayne  NEUMANN                   33.4       35.5 TRUE   
##  2  2022 QLD     Bonner      ALP     Australian La…         20930 Tabatha YOUNG                     29.3       30.0 FALSE  
##  3  2022 QLD     Bowman      ALP     Australian La…         23196 Donisha DUFF                      28.7       29.6 FALSE  
##  4  2022 QLD     Brisbane    ALP     Australian La…         20346 Madonna JARRETT                   27.1       27.7 FALSE  
##  5  2022 QLD     Capricornia ALP     Australian La…         20543 Russell ROBERT…                   26.9       28.7 FALSE  
##  6  2022 QLD     Dawson      ALP     Australian La…         18921 Shane   HAMILT…                   23.8       24.9 FALSE  
##  7  2022 QLD     Dickson     ALP     Australian La…         22988 Ali     FRANCE                    31.0       32.3 FALSE  
##  8  2022 QLD     Fadden      ALP     Australian La…         18140 Letitia DEL FA…                   21.7       22.8 FALSE  
##  9  2022 QLD     Fairfax     ALP     Australian La…         18001 Sue     FERGUS…                   21.0       22.3 FALSE  
## 10  2022 QLD     Fisher      ALP     Australian La…         19804 Judene  ANDREWS                   22.9       23.7 FALSE  
## # ℹ 20 more rows
## # ℹ abbreviated name: ¹​Percentage_with_Informal
…
